<?xml version="1.0"?>
<VTKFile type="RectilinearGrid" version="1.0" byte_order="LittleEndian" header_type="UInt64">
  <RectilinearGrid WholeExtent="0 1 0 1 0 1">
  <Piece Extent="0 1 0 1 0 1">
    <PointData>
    </PointData>
    <CellData>
    </CellData>
    <Coordinates>
      <DataArray type="Float64" Name="Array 000001326D4D5B30" format="binary" RangeMin="-1e-10" RangeMax="0.2000000001">
        EAAAAAAAAAC7vdfZ33zbvVmT0JmZmck/
      </DataArray>
      <DataArray type="Float64" Name="Array 000001326D4DF2D0" format="binary" RangeMin="-1e-10" RangeMax="0.2000000001">
        EAAAAAAAAAC7vdfZ33zbvVmT0JmZmck/
      </DataArray>
      <DataArray type="Float64" Name="Array 000001326D4DE880" format="binary" RangeMin="-1e-10" RangeMax="0.4000000001">
        EAAAAAAAAAC7vdfZ33zbvXkWtZmZmdk/
      </DataArray>
    </Coordinates>
  </Piece>
  </RectilinearGrid>
</VTKFile>
